\select@language {spanish}
\contentsline {figure}{\numberline {1}{\ignorespaces Men\IeC {\'u} del juego}}{12}{figure.1}
\contentsline {figure}{\numberline {2}{\ignorespaces Men\IeC {\'u} de controles}}{12}{figure.2}
\contentsline {figure}{\numberline {3}{\ignorespaces Ranking}}{13}{figure.3}
\contentsline {figure}{\numberline {4}{\ignorespaces TacticalState}}{13}{figure.4}
\contentsline {figure}{\numberline {5}{\ignorespaces WaveState}}{14}{figure.5}
\contentsline {figure}{\numberline {6}{\ignorespaces Pantalla Final}}{15}{figure.6}
