// wire_177028149 genrated by blender2ogre 0.6.0

material wire_177028149 
{
    receive_shadows on 

    technique
    {
        pass wire_177028149
        {
            ambient 0.6941180229187012 0.10980399698019028 0.5843139886856079 1.0
            diffuse 0.5552944266094926 0.08784319889311787 0.4674511979140519 1.0
            specular 0.3499999940395355 0.3499999940395355 0.3499999940395355 1.0 4.0
            emissive 0.0 0.0 0.0 1.0

            alpha_to_coverage off
            colour_write on
            cull_hardware clockwise
            depth_check on
            depth_func less_equal
            depth_write on
            illumination_stage 
            light_clip_planes off
            light_scissor off
            lighting on
            normalise_normals off
            polygon_mode solid
            scene_blend one zero
            scene_blend_op add
            shading gouraud
            transparent_sorting on

        }
    }
}
